127.0.0.1 - - [29/Dec/2014:16:31:54 +0200] "GET / HTTP/1.1" 404 951
0:0:0:0:0:0:0:1 - - [29/Dec/2014:16:32:02 +0200] "GET /ProiectJSF/faces/FormProduse.xhtml HTTP/1.1" 200 4376
0:0:0:0:0:0:0:1 - - [29/Dec/2014:16:32:06 +0200] "POST /ProiectJSF/faces/FormProduse.xhtml;jsessionid=8E56A4CFC745ACD6FBCE67EF2231234F HTTP/1.1" 200 4336
0:0:0:0:0:0:0:1 - - [29/Dec/2014:16:32:07 +0200] "POST /ProiectJSF/faces/FormProduse.xhtml HTTP/1.1" 200 4333
0:0:0:0:0:0:0:1 - - [29/Dec/2014:16:32:08 +0200] "POST /ProiectJSF/faces/FormProduse.xhtml HTTP/1.1" 200 4334
0:0:0:0:0:0:0:1 - - [29/Dec/2014:16:32:09 +0200] "POST /ProiectJSF/faces/FormProduse.xhtml HTTP/1.1" 200 4333
0:0:0:0:0:0:0:1 - - [29/Dec/2014:16:32:09 +0200] "POST /ProiectJSF/faces/FormProduse.xhtml HTTP/1.1" 200 4335
0:0:0:0:0:0:0:1 - - [29/Dec/2014:16:32:11 +0200] "POST /ProiectJSF/faces/FormProduse.xhtml HTTP/1.1" 500 1287
0:0:0:0:0:0:0:1 - - [29/Dec/2014:16:32:38 +0200] "POST /ProiectJSF/faces/FormProduse.xhtml HTTP/1.1" 500 1307
127.0.0.1 - - [29/Dec/2014:16:40:21 +0200] "GET / HTTP/1.1" 404 951
0:0:0:0:0:0:0:1 - - [29/Dec/2014:16:40:26 +0200] "GET /ProiectJSF/faces/FormProduse.xhtml HTTP/1.1" 200 4332
0:0:0:0:0:0:0:1 - - [29/Dec/2014:16:40:30 +0200] "POST /ProiectJSF/faces/FormProduse.xhtml HTTP/1.1" 200 4336
0:0:0:0:0:0:0:1 - - [29/Dec/2014:16:40:31 +0200] "POST /ProiectJSF/faces/FormProduse.xhtml HTTP/1.1" 200 4333
0:0:0:0:0:0:0:1 - - [29/Dec/2014:16:40:32 +0200] "POST /ProiectJSF/faces/FormProduse.xhtml HTTP/1.1" 200 4334
0:0:0:0:0:0:0:1 - - [29/Dec/2014:16:40:33 +0200] "POST /ProiectJSF/faces/FormProduse.xhtml HTTP/1.1" 200 4333
0:0:0:0:0:0:0:1 - - [29/Dec/2014:16:40:34 +0200] "POST /ProiectJSF/faces/FormProduse.xhtml HTTP/1.1" 200 4335
0:0:0:0:0:0:0:1 - - [29/Dec/2014:16:40:35 +0200] "POST /ProiectJSF/faces/FormProduse.xhtml HTTP/1.1" 200 4335
0:0:0:0:0:0:0:1 - - [29/Dec/2014:16:40:37 +0200] "POST /ProiectJSF/faces/FormProduse.xhtml HTTP/1.1" 500 1287
0:0:0:0:0:0:0:1 - - [29/Dec/2014:16:40:41 +0200] "POST /ProiectJSF/faces/FormProduse.xhtml HTTP/1.1" 200 980
0:0:0:0:0:0:0:1 - - [29/Dec/2014:16:40:45 +0200] "POST /ProiectJSF/faces/FormProduse.xhtml HTTP/1.1" 500 1287
0:0:0:0:0:0:0:1 - - [29/Dec/2014:16:40:45 +0200] "GET /ProiectJSF/faces/javax.faces.resource/jsf.js?ln=javax.faces HTTP/1.1" 304 -
0:0:0:0:0:0:0:1 - - [29/Dec/2014:16:55:17 +0200] "POST /ProiectJSF/faces/FormProduse.xhtml HTTP/1.1" 500 6691
0:0:0:0:0:0:0:1 - - [29/Dec/2014:16:55:55 +0200] "GET /ProiectJSF/faces/FormProduse.xhtml HTTP/1.1" 500 1331
0:0:0:0:0:0:0:1 - - [29/Dec/2014:16:57:04 +0200] "GET /ProiectJSF/faces/FormProduse.xhtml HTTP/1.1" 200 5256
0:0:0:0:0:0:0:1 - - [29/Dec/2014:16:57:04 +0200] "GET /ProiectJSF/faces/FormProduse.xhtml HTTP/1.1" 200 5256
0:0:0:0:0:0:0:1 - - [29/Dec/2014:16:57:04 +0200] "GET /ProiectJSF/faces/FormProduse.xhtml HTTP/1.1" 200 5256
0:0:0:0:0:0:0:1 - - [29/Dec/2014:16:57:04 +0200] "GET /ProiectJSF/faces/FormProduse.xhtml HTTP/1.1" 200 5256
0:0:0:0:0:0:0:1 - - [29/Dec/2014:16:57:04 +0200] "GET /ProiectJSF/faces/javax.faces.resource/jsf.js?ln=javax.faces HTTP/1.1" 304 -
0:0:0:0:0:0:0:1 - - [29/Dec/2014:16:57:04 +0200] "GET /ProiectJSF/faces/FormProduse.xhtml HTTP/1.1" 200 5256
0:0:0:0:0:0:0:1 - - [29/Dec/2014:16:57:07 +0200] "POST /ProiectJSF/faces/FormProduse.xhtml HTTP/1.1" 200 5260
0:0:0:0:0:0:0:1 - - [29/Dec/2014:16:57:08 +0200] "POST /ProiectJSF/faces/FormProduse.xhtml HTTP/1.1" 200 5257
0:0:0:0:0:0:0:1 - - [29/Dec/2014:16:57:09 +0200] "POST /ProiectJSF/faces/FormProduse.xhtml HTTP/1.1" 200 5258
0:0:0:0:0:0:0:1 - - [29/Dec/2014:16:57:10 +0200] "POST /ProiectJSF/faces/FormProduse.xhtml HTTP/1.1" 200 5257
0:0:0:0:0:0:0:1 - - [29/Dec/2014:16:57:11 +0200] "POST /ProiectJSF/faces/FormProduse.xhtml HTTP/1.1" 200 250
0:0:0:0:0:0:0:1 - - [29/Dec/2014:16:58:13 +0200] "POST /ProiectJSF/faces/FormProduse.xhtml HTTP/1.1" 500 2163
0:0:0:0:0:0:0:1 - - [29/Dec/2014:16:58:13 +0200] "POST /ProiectJSF/faces/FormProduse.xhtml HTTP/1.1" 500 2163
0:0:0:0:0:0:0:1 - - [29/Dec/2014:16:58:13 +0200] "POST /ProiectJSF/faces/FormProduse.xhtml HTTP/1.1" 200 260
0:0:0:0:0:0:0:1 - - [29/Dec/2014:16:58:13 +0200] "POST /ProiectJSF/faces/FormProduse.xhtml HTTP/1.1" 500 2163
0:0:0:0:0:0:0:1 - - [29/Dec/2014:16:58:13 +0200] "POST /ProiectJSF/faces/FormProduse.xhtml HTTP/1.1" 500 2163
0:0:0:0:0:0:0:1 - - [29/Dec/2014:16:58:13 +0200] "POST /ProiectJSF/faces/FormProduse.xhtml HTTP/1.1" 500 2163
0:0:0:0:0:0:0:1 - - [29/Dec/2014:16:58:13 +0200] "POST /ProiectJSF/faces/FormProduse.xhtml HTTP/1.1" 200 260
0:0:0:0:0:0:0:1 - - [29/Dec/2014:16:58:13 +0200] "POST /ProiectJSF/faces/FormProduse.xhtml HTTP/1.1" 200 260
0:0:0:0:0:0:0:1 - - [29/Dec/2014:16:58:13 +0200] "POST /ProiectJSF/faces/FormProduse.xhtml HTTP/1.1" 500 2163
0:0:0:0:0:0:0:1 - - [29/Dec/2014:16:58:13 +0200] "POST /ProiectJSF/faces/FormProduse.xhtml HTTP/1.1" 500 2163
127.0.0.1 - - [29/Dec/2014:17:01:19 +0200] "GET / HTTP/1.1" 404 951
0:0:0:0:0:0:0:1 - - [29/Dec/2014:17:01:27 +0200] "GET /ProiectJSF/faces/FormProduse.xhtml HTTP/1.1" 200 5256
0:0:0:0:0:0:0:1 - - [29/Dec/2014:17:01:29 +0200] "POST /ProiectJSF/faces/FormProduse.xhtml HTTP/1.1" 200 5260
0:0:0:0:0:0:0:1 - - [29/Dec/2014:17:01:30 +0200] "POST /ProiectJSF/faces/FormProduse.xhtml HTTP/1.1" 200 5257
0:0:0:0:0:0:0:1 - - [29/Dec/2014:17:01:31 +0200] "POST /ProiectJSF/faces/FormProduse.xhtml HTTP/1.1" 200 5258
0:0:0:0:0:0:0:1 - - [29/Dec/2014:17:01:33 +0200] "POST /ProiectJSF/faces/FormProduse.xhtml HTTP/1.1" 200 250
0:0:0:0:0:0:0:1 - - [29/Dec/2014:17:01:35 +0200] "POST /ProiectJSF/faces/FormProduse.xhtml HTTP/1.1" 200 250
0:0:0:0:0:0:0:1 - - [29/Dec/2014:17:01:36 +0200] "POST /ProiectJSF/faces/FormProduse.xhtml HTTP/1.1" 200 250
0:0:0:0:0:0:0:1 - - [29/Dec/2014:17:01:38 +0200] "POST /ProiectJSF/faces/FormProduse.xhtml HTTP/1.1" 200 226
0:0:0:0:0:0:0:1 - - [29/Dec/2014:17:01:39 +0200] "POST /ProiectJSF/faces/FormProduse.xhtml HTTP/1.1" 200 250
0:0:0:0:0:0:0:1 - - [29/Dec/2014:17:16:55 +0200] "GET /ProiectJSF/faces/FormProduse.xhtml HTTP/1.1" 500 1331
0:0:0:0:0:0:0:1 - - [29/Dec/2014:17:16:57 +0200] "GET /ProiectJSF/faces/FormProduse.xhtml HTTP/1.1" 500 1331
0:0:0:0:0:0:0:1 - - [29/Dec/2014:17:16:57 +0200] "GET /ProiectJSF/faces/javax.faces.resource/jsf.js?ln=javax.faces HTTP/1.1" 304 -
0:0:0:0:0:0:0:1 - - [29/Dec/2014:17:16:59 +0200] "GET /ProiectJSF/faces/FormProduse.xhtml HTTP/1.1" 500 1331
0:0:0:0:0:0:0:1 - - [29/Dec/2014:17:16:59 +0200] "GET /ProiectJSF/faces/javax.faces.resource/jsf.js?ln=javax.faces HTTP/1.1" 304 -
0:0:0:0:0:0:0:1 - - [29/Dec/2014:17:17:00 +0200] "GET /ProiectJSF/faces/FormProduse.xhtml HTTP/1.1" 500 1331
0:0:0:0:0:0:0:1 - - [29/Dec/2014:17:17:00 +0200] "GET /ProiectJSF/faces/javax.faces.resource/jsf.js?ln=javax.faces HTTP/1.1" 304 -
0:0:0:0:0:0:0:1 - - [29/Dec/2014:17:17:04 +0200] "GET /ProiectJSF/faces/FormProduse.xhtml HTTP/1.1" 500 1331
0:0:0:0:0:0:0:1 - - [29/Dec/2014:17:17:04 +0200] "GET /ProiectJSF/faces/javax.faces.resource/jsf.js?ln=javax.faces HTTP/1.1" 304 -
127.0.0.1 - - [29/Dec/2014:17:19:49 +0200] "GET / HTTP/1.1" 404 951
0:0:0:0:0:0:0:1 - - [29/Dec/2014:17:20:30 +0200] "GET /ProiectJSF/faces/FormProduse.xhtml HTTP/1.1" 200 5256
0:0:0:0:0:0:0:1 - - [29/Dec/2014:17:20:39 +0200] "POST /ProiectJSF/faces/FormProduse.xhtml HTTP/1.1" 200 5260
0:0:0:0:0:0:0:1 - - [29/Dec/2014:17:20:40 +0200] "POST /ProiectJSF/faces/FormProduse.xhtml HTTP/1.1" 200 5257
0:0:0:0:0:0:0:1 - - [29/Dec/2014:17:20:41 +0200] "POST /ProiectJSF/faces/FormProduse.xhtml HTTP/1.1" 200 5258
0:0:0:0:0:0:0:1 - - [29/Dec/2014:17:20:42 +0200] "POST /ProiectJSF/faces/FormProduse.xhtml HTTP/1.1" 200 250
0:0:0:0:0:0:0:1 - - [29/Dec/2014:17:20:43 +0200] "POST /ProiectJSF/faces/FormProduse.xhtml HTTP/1.1" 200 250
0:0:0:0:0:0:0:1 - - [29/Dec/2014:17:20:45 +0200] "POST /ProiectJSF/faces/FormProduse.xhtml HTTP/1.1" 200 226
0:0:0:0:0:0:0:1 - - [29/Dec/2014:17:20:46 +0200] "POST /ProiectJSF/faces/FormProduse.xhtml HTTP/1.1" 200 250
0:0:0:0:0:0:0:1 - - [29/Dec/2014:17:20:47 +0200] "POST /ProiectJSF/faces/FormProduse.xhtml HTTP/1.1" 200 798
0:0:0:0:0:0:0:1 - - [29/Dec/2014:17:21:25 +0200] "POST /ProiectJSF/faces/FormProduse.xhtml HTTP/1.1" 500 1268
0:0:0:0:0:0:0:1 - - [29/Dec/2014:17:21:42 +0200] "POST /ProiectJSF/faces/FormProduse.xhtml HTTP/1.1" 500 1288
0:0:0:0:0:0:0:1 - - [29/Dec/2014:17:21:46 +0200] "POST /ProiectJSF/faces/FormProduse.xhtml HTTP/1.1" 200 737
0:0:0:0:0:0:0:1 - - [29/Dec/2014:17:21:58 +0200] "POST /ProiectJSF/faces/FormProduse.xhtml HTTP/1.1" 200 250
0:0:0:0:0:0:0:1 - - [29/Dec/2014:17:22:01 +0200] "POST /ProiectJSF/faces/FormProduse.xhtml HTTP/1.1" 500 1288
0:0:0:0:0:0:0:1 - - [29/Dec/2014:17:22:12 +0200] "POST /ProiectJSF/faces/FormProduse.xhtml HTTP/1.1" 200 250
0:0:0:0:0:0:0:1 - - [29/Dec/2014:17:22:16 +0200] "POST /ProiectJSF/faces/FormProduse.xhtml HTTP/1.1" 200 250
0:0:0:0:0:0:0:1 - - [29/Dec/2014:17:22:16 +0200] "POST /ProiectJSF/faces/FormProduse.xhtml HTTP/1.1" 200 250
0:0:0:0:0:0:0:1 - - [29/Dec/2014:17:22:19 +0200] "GET /ProiectJSF/faces/FormProduse.xhtml HTTP/1.1" 500 1268
0:0:0:0:0:0:0:1 - - [29/Dec/2014:17:22:19 +0200] "GET /ProiectJSF/faces/javax.faces.resource/jsf.js?ln=javax.faces HTTP/1.1" 304 -
0:0:0:0:0:0:0:1 - - [29/Dec/2014:17:22:20 +0200] "GET /ProiectJSF/faces/FormProduse.xhtml HTTP/1.1" 500 1268
0:0:0:0:0:0:0:1 - - [29/Dec/2014:17:22:20 +0200] "GET /ProiectJSF/faces/javax.faces.resource/jsf.js?ln=javax.faces HTTP/1.1" 304 -
0:0:0:0:0:0:0:1 - - [29/Dec/2014:17:22:21 +0200] "GET /ProiectJSF/faces/FormProduse.xhtml HTTP/1.1" 500 1268
0:0:0:0:0:0:0:1 - - [29/Dec/2014:17:22:21 +0200] "GET /ProiectJSF/faces/javax.faces.resource/jsf.js?ln=javax.faces HTTP/1.1" 304 -
0:0:0:0:0:0:0:1 - - [29/Dec/2014:17:22:23 +0200] "GET /ProiectJSF/faces/FormProduse.xhtml HTTP/1.1" 500 1268
0:0:0:0:0:0:0:1 - - [29/Dec/2014:17:22:23 +0200] "GET /ProiectJSF/faces/javax.faces.resource/jsf.js?ln=javax.faces HTTP/1.1" 304 -
0:0:0:0:0:0:0:1 - - [29/Dec/2014:17:22:24 +0200] "GET /ProiectJSF/faces/FormProduse.xhtml HTTP/1.1" 500 1268
0:0:0:0:0:0:0:1 - - [29/Dec/2014:17:22:24 +0200] "GET /ProiectJSF/faces/javax.faces.resource/jsf.js?ln=javax.faces HTTP/1.1" 304 -
0:0:0:0:0:0:0:1 - - [29/Dec/2014:17:22:29 +0200] "POST /ProiectJSF/faces/FormProduse.xhtml HTTP/1.1" 500 1288
0:0:0:0:0:0:0:1 - - [29/Dec/2014:17:22:34 +0200] "POST /ProiectJSF/faces/FormProduse.xhtml HTTP/1.1" 500 1288
0:0:0:0:0:0:0:1 - - [29/Dec/2014:17:22:34 +0200] "GET /ProiectJSF/faces/javax.faces.resource/jsf.js?ln=javax.faces HTTP/1.1" 304 -
0:0:0:0:0:0:0:1 - - [29/Dec/2014:17:22:41 +0200] "POST /ProiectJSF/faces/FormProduse.xhtml HTTP/1.1" 200 250
0:0:0:0:0:0:0:1 - - [29/Dec/2014:17:22:47 +0200] "POST /ProiectJSF/faces/FormProduse.xhtml HTTP/1.1" 200 250
0:0:0:0:0:0:0:1 - - [29/Dec/2014:17:22:47 +0200] "POST /ProiectJSF/faces/FormProduse.xhtml HTTP/1.1" 200 250
0:0:0:0:0:0:0:1 - - [29/Dec/2014:17:22:48 +0200] "POST /ProiectJSF/faces/FormProduse.xhtml HTTP/1.1" 200 250
0:0:0:0:0:0:0:1 - - [29/Dec/2014:17:22:50 +0200] "POST /ProiectJSF/faces/FormProduse.xhtml HTTP/1.1" 200 226
0:0:0:0:0:0:0:1 - - [29/Dec/2014:17:23:00 +0200] "POST /ProiectJSF/faces/FormProduse.xhtml HTTP/1.1" 200 250
0:0:0:0:0:0:0:1 - - [29/Dec/2014:17:23:04 +0200] "POST /ProiectJSF/faces/FormProduse.xhtml HTTP/1.1" 200 250
0:0:0:0:0:0:0:1 - - [29/Dec/2014:17:23:05 +0200] "POST /ProiectJSF/faces/FormProduse.xhtml HTTP/1.1" 200 250
0:0:0:0:0:0:0:1 - - [29/Dec/2014:17:23:07 +0200] "POST /ProiectJSF/faces/FormProduse.xhtml HTTP/1.1" 200 250
0:0:0:0:0:0:0:1 - - [29/Dec/2014:17:23:08 +0200] "POST /ProiectJSF/faces/FormProduse.xhtml HTTP/1.1" 200 250
0:0:0:0:0:0:0:1 - - [29/Dec/2014:17:23:10 +0200] "POST /ProiectJSF/faces/FormProduse.xhtml HTTP/1.1" 500 1134
0:0:0:0:0:0:0:1 - - [29/Dec/2014:17:23:52 +0200] "GET /ProiectJSF/faces/FormProduse.xhtml HTTP/1.1" 500 1154
0:0:0:0:0:0:0:1 - - [29/Dec/2014:17:23:56 +0200] "POST /ProiectJSF/faces/FormProduse.xhtml HTTP/1.1" 200 1004
0:0:0:0:0:0:0:1 - - [29/Dec/2014:17:23:58 +0200] "POST /ProiectJSF/faces/FormProduse.xhtml HTTP/1.1" 200 1004
0:0:0:0:0:0:0:1 - - [29/Dec/2014:17:24:29 +0200] "GET /ProiectJSF/faces/FormProduse.xhtml HTTP/1.1" 500 1154
0:0:0:0:0:0:0:1 - - [29/Dec/2014:17:25:57 +0200] "GET /ProiectJSF/faces/FormProduse.xhtml HTTP/1.1" 500 1154
127.0.0.1 - - [29/Dec/2014:17:29:33 +0200] "GET / HTTP/1.1" 404 951
0:0:0:0:0:0:0:1 - - [29/Dec/2014:17:29:39 +0200] "GET /ProiectJSF/faces/FormProduse.xhtml HTTP/1.1" 200 5256
0:0:0:0:0:0:0:1 - - [29/Dec/2014:17:29:47 +0200] "POST /ProiectJSF/faces/FormProduse.xhtml HTTP/1.1" 200 5260
0:0:0:0:0:0:0:1 - - [29/Dec/2014:17:29:48 +0200] "POST /ProiectJSF/faces/FormProduse.xhtml HTTP/1.1" 200 5257
0:0:0:0:0:0:0:1 - - [29/Dec/2014:17:29:49 +0200] "POST /ProiectJSF/faces/FormProduse.xhtml HTTP/1.1" 200 5258
0:0:0:0:0:0:0:1 - - [29/Dec/2014:17:29:50 +0200] "POST /ProiectJSF/faces/FormProduse.xhtml HTTP/1.1" 200 5257
0:0:0:0:0:0:0:1 - - [29/Dec/2014:17:29:51 +0200] "POST /ProiectJSF/faces/FormProduse.xhtml HTTP/1.1" 200 250
0:0:0:0:0:0:0:1 - - [29/Dec/2014:17:29:52 +0200] "POST /ProiectJSF/faces/FormProduse.xhtml HTTP/1.1" 200 250
0:0:0:0:0:0:0:1 - - [29/Dec/2014:17:29:53 +0200] "POST /ProiectJSF/faces/FormProduse.xhtml HTTP/1.1" 200 250
0:0:0:0:0:0:0:1 - - [29/Dec/2014:17:29:54 +0200] "POST /ProiectJSF/faces/FormProduse.xhtml HTTP/1.1" 200 250
0:0:0:0:0:0:0:1 - - [29/Dec/2014:17:29:55 +0200] "POST /ProiectJSF/faces/FormProduse.xhtml HTTP/1.1" 500 1331
0:0:0:0:0:0:0:1 - - [29/Dec/2014:17:30:00 +0200] "POST /ProiectJSF/faces/FormProduse.xhtml HTTP/1.1" 200 250
0:0:0:0:0:0:0:1 - - [29/Dec/2014:17:30:01 +0200] "POST /ProiectJSF/faces/FormProduse.xhtml HTTP/1.1" 500 1331
0:0:0:0:0:0:0:1 - - [29/Dec/2014:17:30:04 +0200] "POST /ProiectJSF/faces/FormProduse.xhtml HTTP/1.1" 200 250
0:0:0:0:0:0:0:1 - - [29/Dec/2014:17:30:05 +0200] "POST /ProiectJSF/faces/FormProduse.xhtml HTTP/1.1" 200 250
0:0:0:0:0:0:0:1 - - [29/Dec/2014:17:30:05 +0200] "POST /ProiectJSF/faces/FormProduse.xhtml HTTP/1.1" 200 250
0:0:0:0:0:0:0:1 - - [29/Dec/2014:17:30:06 +0200] "POST /ProiectJSF/faces/FormProduse.xhtml HTTP/1.1" 200 250
0:0:0:0:0:0:0:1 - - [29/Dec/2014:17:30:06 +0200] "POST /ProiectJSF/faces/FormProduse.xhtml HTTP/1.1" 200 250
0:0:0:0:0:0:0:1 - - [29/Dec/2014:17:30:06 +0200] "POST /ProiectJSF/faces/FormProduse.xhtml HTTP/1.1" 200 250
0:0:0:0:0:0:0:1 - - [29/Dec/2014:17:30:06 +0200] "POST /ProiectJSF/faces/FormProduse.xhtml HTTP/1.1" 200 250
0:0:0:0:0:0:0:1 - - [29/Dec/2014:17:30:06 +0200] "POST /ProiectJSF/faces/FormProduse.xhtml HTTP/1.1" 200 250
0:0:0:0:0:0:0:1 - - [29/Dec/2014:17:30:06 +0200] "POST /ProiectJSF/faces/FormProduse.xhtml HTTP/1.1" 200 250
0:0:0:0:0:0:0:1 - - [29/Dec/2014:17:30:07 +0200] "POST /ProiectJSF/faces/FormProduse.xhtml HTTP/1.1" 200 250
0:0:0:0:0:0:0:1 - - [29/Dec/2014:17:30:08 +0200] "POST /ProiectJSF/faces/FormProduse.xhtml HTTP/1.1" 200 250
0:0:0:0:0:0:0:1 - - [29/Dec/2014:17:30:11 +0200] "POST /ProiectJSF/faces/FormProduse.xhtml HTTP/1.1" 200 226
0:0:0:0:0:0:0:1 - - [29/Dec/2014:17:30:14 +0200] "POST /ProiectJSF/faces/FormProduse.xhtml HTTP/1.1" 200 250
0:0:0:0:0:0:0:1 - - [29/Dec/2014:17:30:14 +0200] "POST /ProiectJSF/faces/FormProduse.xhtml HTTP/1.1" 200 250
0:0:0:0:0:0:0:1 - - [29/Dec/2014:17:30:14 +0200] "POST /ProiectJSF/faces/FormProduse.xhtml HTTP/1.1" 200 250
0:0:0:0:0:0:0:1 - - [29/Dec/2014:17:30:15 +0200] "POST /ProiectJSF/faces/FormProduse.xhtml HTTP/1.1" 200 250
0:0:0:0:0:0:0:1 - - [29/Dec/2014:17:30:15 +0200] "POST /ProiectJSF/faces/FormProduse.xhtml HTTP/1.1" 200 250
0:0:0:0:0:0:0:1 - - [29/Dec/2014:17:31:51 +0200] "GET /ProiectJSF/faces/FormProduse.xhtml HTTP/1.1" 500 1331
0:0:0:0:0:0:0:1 - - [29/Dec/2014:17:31:58 +0200] "POST /ProiectJSF/faces/FormProduse.xhtml HTTP/1.1" 500 1331
0:0:0:0:0:0:0:1 - - [29/Dec/2014:17:31:58 +0200] "GET /ProiectJSF/faces/javax.faces.resource/jsf.js?ln=javax.faces HTTP/1.1" 304 -
0:0:0:0:0:0:0:1 - - [29/Dec/2014:17:32:03 +0200] "POST /ProiectJSF/faces/FormProduse.xhtml HTTP/1.1" 500 1331
0:0:0:0:0:0:0:1 - - [29/Dec/2014:17:32:03 +0200] "GET /ProiectJSF/faces/javax.faces.resource/jsf.js?ln=javax.faces HTTP/1.1" 304 -
0:0:0:0:0:0:0:1 - - [29/Dec/2014:17:32:09 +0200] "POST /ProiectJSF/faces/FormProduse.xhtml HTTP/1.1" 200 250
0:0:0:0:0:0:0:1 - - [29/Dec/2014:17:32:10 +0200] "POST /ProiectJSF/faces/FormProduse.xhtml HTTP/1.1" 200 250
0:0:0:0:0:0:0:1 - - [29/Dec/2014:17:32:16 +0200] "GET /ProiectJSF/faces/FormProduse.xhtml HTTP/1.1" 500 1311
127.0.0.1 - - [29/Dec/2014:17:35:34 +0200] "GET / HTTP/1.1" 404 951
0:0:0:0:0:0:0:1 - - [29/Dec/2014:17:35:40 +0200] "GET /ProiectJSF/faces/FormProduse.xhtml HTTP/1.1" 200 5686
0:0:0:0:0:0:0:1 - - [29/Dec/2014:17:35:42 +0200] "POST /ProiectJSF/faces/FormProduse.xhtml HTTP/1.1" 200 5351
0:0:0:0:0:0:0:1 - - [29/Dec/2014:17:35:43 +0200] "POST /ProiectJSF/faces/FormProduse.xhtml HTTP/1.1" 200 5348
0:0:0:0:0:0:0:1 - - [29/Dec/2014:17:35:44 +0200] "POST /ProiectJSF/faces/FormProduse.xhtml HTTP/1.1" 200 5349
0:0:0:0:0:0:0:1 - - [29/Dec/2014:17:35:44 +0200] "POST /ProiectJSF/faces/FormProduse.xhtml HTTP/1.1" 200 5348
0:0:0:0:0:0:0:1 - - [29/Dec/2014:17:35:45 +0200] "POST /ProiectJSF/faces/FormProduse.xhtml HTTP/1.1" 200 5350
0:0:0:0:0:0:0:1 - - [29/Dec/2014:17:35:45 +0200] "POST /ProiectJSF/faces/FormProduse.xhtml HTTP/1.1" 200 5350
0:0:0:0:0:0:0:1 - - [29/Dec/2014:17:35:45 +0200] "POST /ProiectJSF/faces/FormProduse.xhtml HTTP/1.1" 200 5350
0:0:0:0:0:0:0:1 - - [29/Dec/2014:17:35:46 +0200] "POST /ProiectJSF/faces/FormProduse.xhtml HTTP/1.1" 200 5350
0:0:0:0:0:0:0:1 - - [29/Dec/2014:17:35:46 +0200] "POST /ProiectJSF/faces/FormProduse.xhtml HTTP/1.1" 200 5350
0:0:0:0:0:0:0:1 - - [29/Dec/2014:17:35:48 +0200] "POST /ProiectJSF/faces/FormProduse.xhtml HTTP/1.1" 200 250
0:0:0:0:0:0:0:1 - - [29/Dec/2014:17:35:50 +0200] "POST /ProiectJSF/faces/FormProduse.xhtml HTTP/1.1" 200 250
0:0:0:0:0:0:0:1 - - [29/Dec/2014:17:35:53 +0200] "POST /ProiectJSF/faces/FormProduse.xhtml HTTP/1.1" 200 250
0:0:0:0:0:0:0:1 - - [29/Dec/2014:17:35:56 +0200] "POST /ProiectJSF/faces/FormProduse.xhtml HTTP/1.1" 200 250
0:0:0:0:0:0:0:1 - - [29/Dec/2014:17:35:57 +0200] "POST /ProiectJSF/faces/FormProduse.xhtml HTTP/1.1" 200 250
0:0:0:0:0:0:0:1 - - [29/Dec/2014:17:35:58 +0200] "POST /ProiectJSF/faces/FormProduse.xhtml HTTP/1.1" 200 250
0:0:0:0:0:0:0:1 - - [29/Dec/2014:17:35:59 +0200] "POST /ProiectJSF/faces/FormProduse.xhtml HTTP/1.1" 200 250
0:0:0:0:0:0:0:1 - - [29/Dec/2014:17:36:00 +0200] "POST /ProiectJSF/faces/FormProduse.xhtml HTTP/1.1" 200 250
0:0:0:0:0:0:0:1 - - [29/Dec/2014:17:36:00 +0200] "POST /ProiectJSF/faces/FormProduse.xhtml HTTP/1.1" 200 250
0:0:0:0:0:0:0:1 - - [29/Dec/2014:17:36:01 +0200] "POST /ProiectJSF/faces/FormProduse.xhtml HTTP/1.1" 200 250
0:0:0:0:0:0:0:1 - - [29/Dec/2014:17:36:01 +0200] "POST /ProiectJSF/faces/FormProduse.xhtml HTTP/1.1" 200 250
0:0:0:0:0:0:0:1 - - [29/Dec/2014:17:36:01 +0200] "POST /ProiectJSF/faces/FormProduse.xhtml HTTP/1.1" 200 250
0:0:0:0:0:0:0:1 - - [29/Dec/2014:17:36:02 +0200] "POST /ProiectJSF/faces/FormProduse.xhtml HTTP/1.1" 200 226
0:0:0:0:0:0:0:1 - - [29/Dec/2014:17:36:03 +0200] "POST /ProiectJSF/faces/FormProduse.xhtml HTTP/1.1" 200 226
0:0:0:0:0:0:0:1 - - [29/Dec/2014:17:36:04 +0200] "POST /ProiectJSF/faces/FormProduse.xhtml HTTP/1.1" 200 799
0:0:0:0:0:0:0:1 - - [29/Dec/2014:17:36:08 +0200] "POST /ProiectJSF/faces/FormProduse.xhtml HTTP/1.1" 200 250
0:0:0:0:0:0:0:1 - - [29/Dec/2014:17:36:10 +0200] "POST /ProiectJSF/faces/FormProduse.xhtml HTTP/1.1" 200 250
0:0:0:0:0:0:0:1 - - [29/Dec/2014:17:36:11 +0200] "POST /ProiectJSF/faces/FormProduse.xhtml HTTP/1.1" 200 250
0:0:0:0:0:0:0:1 - - [29/Dec/2014:17:36:12 +0200] "POST /ProiectJSF/faces/FormProduse.xhtml HTTP/1.1" 200 250
0:0:0:0:0:0:0:1 - - [29/Dec/2014:17:36:12 +0200] "POST /ProiectJSF/faces/FormProduse.xhtml HTTP/1.1" 200 250
0:0:0:0:0:0:0:1 - - [29/Dec/2014:17:36:13 +0200] "POST /ProiectJSF/faces/FormProduse.xhtml HTTP/1.1" 200 250
0:0:0:0:0:0:0:1 - - [29/Dec/2014:17:36:15 +0200] "POST /ProiectJSF/faces/FormProduse.xhtml HTTP/1.1" 200 250
0:0:0:0:0:0:0:1 - - [29/Dec/2014:17:36:16 +0200] "POST /ProiectJSF/faces/FormProduse.xhtml HTTP/1.1" 200 250
0:0:0:0:0:0:0:1 - - [29/Dec/2014:17:36:17 +0200] "POST /ProiectJSF/faces/FormProduse.xhtml HTTP/1.1" 200 226
0:0:0:0:0:0:0:1 - - [29/Dec/2014:17:36:20 +0200] "POST /ProiectJSF/faces/FormProduse.xhtml HTTP/1.1" 200 226
0:0:0:0:0:0:0:1 - - [29/Dec/2014:17:36:22 +0200] "POST /ProiectJSF/faces/FormProduse.xhtml HTTP/1.1" 200 250
0:0:0:0:0:0:0:1 - - [29/Dec/2014:17:36:23 +0200] "POST /ProiectJSF/faces/FormProduse.xhtml HTTP/1.1" 200 250
0:0:0:0:0:0:0:1 - - [29/Dec/2014:17:36:24 +0200] "POST /ProiectJSF/faces/FormProduse.xhtml HTTP/1.1" 200 250
0:0:0:0:0:0:0:1 - - [29/Dec/2014:17:36:24 +0200] "POST /ProiectJSF/faces/FormProduse.xhtml HTTP/1.1" 200 250
0:0:0:0:0:0:0:1 - - [29/Dec/2014:17:36:24 +0200] "POST /ProiectJSF/faces/FormProduse.xhtml HTTP/1.1" 200 250
0:0:0:0:0:0:0:1 - - [29/Dec/2014:17:36:24 +0200] "POST /ProiectJSF/faces/FormProduse.xhtml HTTP/1.1" 200 250
0:0:0:0:0:0:0:1 - - [29/Dec/2014:17:38:17 +0200] "GET /ProiectJSF/faces/FormProduse.xhtml HTTP/1.1" 500 1243
0:0:0:0:0:0:0:1 - - [29/Dec/2014:17:38:22 +0200] "POST /ProiectJSF/faces/FormProduse.xhtml HTTP/1.1" 200 1007
0:0:0:0:0:0:0:1 - - [29/Dec/2014:17:38:24 +0200] "POST /ProiectJSF/faces/FormProduse.xhtml HTTP/1.1" 200 1007
0:0:0:0:0:0:0:1 - - [29/Dec/2014:17:38:33 +0200] "GET /ProiectJSF/faces/FormProduse.xhtml HTTP/1.1" 500 1243
0:0:0:0:0:0:0:1 - - [29/Dec/2014:17:38:33 +0200] "GET /ProiectJSF/faces/javax.faces.resource/jsf.js?ln=javax.faces HTTP/1.1" 304 -
0:0:0:0:0:0:0:1 - - [29/Dec/2014:17:38:34 +0200] "GET /ProiectJSF/faces/FormProduse.xhtml HTTP/1.1" 500 1243
0:0:0:0:0:0:0:1 - - [29/Dec/2014:17:38:34 +0200] "GET /ProiectJSF/faces/javax.faces.resource/jsf.js?ln=javax.faces HTTP/1.1" 304 -
0:0:0:0:0:0:0:1 - - [29/Dec/2014:17:38:35 +0200] "GET /ProiectJSF/faces/FormProduse.xhtml HTTP/1.1" 500 1243
0:0:0:0:0:0:0:1 - - [29/Dec/2014:17:38:35 +0200] "GET /ProiectJSF/faces/javax.faces.resource/jsf.js?ln=javax.faces HTTP/1.1" 304 -
0:0:0:0:0:0:0:1 - - [29/Dec/2014:17:38:35 +0200] "GET /ProiectJSF/faces/FormProduse.xhtml HTTP/1.1" 500 1243
0:0:0:0:0:0:0:1 - - [29/Dec/2014:17:38:35 +0200] "GET /ProiectJSF/faces/javax.faces.resource/jsf.js?ln=javax.faces HTTP/1.1" 304 -
0:0:0:0:0:0:0:1 - - [29/Dec/2014:17:38:35 +0200] "GET /ProiectJSF/faces/FormProduse.xhtml HTTP/1.1" 500 1243
0:0:0:0:0:0:0:1 - - [29/Dec/2014:17:38:35 +0200] "GET /ProiectJSF/faces/javax.faces.resource/jsf.js?ln=javax.faces HTTP/1.1" 304 -
0:0:0:0:0:0:0:1 - - [29/Dec/2014:17:38:35 +0200] "GET /ProiectJSF/faces/FormProduse.xhtml HTTP/1.1" 500 1243
0:0:0:0:0:0:0:1 - - [29/Dec/2014:17:38:35 +0200] "GET /ProiectJSF/faces/javax.faces.resource/jsf.js?ln=javax.faces HTTP/1.1" 304 -
0:0:0:0:0:0:0:1 - - [29/Dec/2014:17:38:36 +0200] "GET /ProiectJSF/faces/FormProduse.xhtml HTTP/1.1" 500 1243
0:0:0:0:0:0:0:1 - - [29/Dec/2014:17:38:36 +0200] "GET /ProiectJSF/faces/javax.faces.resource/jsf.js?ln=javax.faces HTTP/1.1" 304 -
0:0:0:0:0:0:0:1 - - [29/Dec/2014:17:38:36 +0200] "GET /ProiectJSF/faces/FormProduse.xhtml HTTP/1.1" 500 1243
0:0:0:0:0:0:0:1 - - [29/Dec/2014:17:38:36 +0200] "GET /ProiectJSF/faces/javax.faces.resource/jsf.js?ln=javax.faces HTTP/1.1" 304 -
0:0:0:0:0:0:0:1 - - [29/Dec/2014:17:38:38 +0200] "GET /ProiectJSF/faces/FormProduse.xhtml HTTP/1.1" 500 1243
0:0:0:0:0:0:0:1 - - [29/Dec/2014:17:38:38 +0200] "GET /ProiectJSF/faces/javax.faces.resource/jsf.js?ln=javax.faces HTTP/1.1" 304 -
127.0.0.1 - - [29/Dec/2014:17:59:43 +0200] "GET / HTTP/1.1" 404 951
0:0:0:0:0:0:0:1 - - [29/Dec/2014:17:59:49 +0200] "GET /ProiectJSF/faces/FormProduse.xhtml HTTP/1.1" 500 701
0:0:0:0:0:0:0:1 - - [29/Dec/2014:18:03:53 +0200] "GET /ProiectJSF/faces/FormProduse.xhtml HTTP/1.1" 500 784
0:0:0:0:0:0:0:1 - - [29/Dec/2014:18:05:11 +0200] "GET /ProiectJSF/faces/FormProduse.xhtml HTTP/1.1" 500 784
127.0.0.1 - - [29/Dec/2014:18:09:47 +0200] "GET / HTTP/1.1" 404 951
0:0:0:0:0:0:0:1 - - [29/Dec/2014:18:09:49 +0200] "GET /ProiectJSF/faces/FormProduse.xhtml HTTP/1.1" 500 4004
0:0:0:0:0:0:0:1 - - [29/Dec/2014:18:11:52 +0200] "GET /ProiectJSF/faces/FormProduse.xhtml HTTP/1.1" 500 784
127.0.0.1 - - [29/Dec/2014:18:18:06 +0200] "GET / HTTP/1.1" 404 951
0:0:0:0:0:0:0:1 - - [29/Dec/2014:18:18:12 +0200] "GET /ProiectJSF/faces/FormProduse.xhtml HTTP/1.1" 500 701
0:0:0:0:0:0:0:1 - - [29/Dec/2014:18:27:10 +0200] "GET /ProiectJSF/faces/FormProduse.xhtml HTTP/1.1" 500 4076
0:0:0:0:0:0:0:1 - - [29/Dec/2014:18:29:01 +0200] "GET /ProiectJSF/faces/FormProduse.xhtml HTTP/1.1" 500 4048
0:0:0:0:0:0:0:1 - - [29/Dec/2014:18:30:59 +0200] "GET /ProiectJSF/faces/FormProduse.xhtml HTTP/1.1" 500 4048
127.0.0.1 - - [29/Dec/2014:18:34:35 +0200] "GET / HTTP/1.1" 404 951
0:0:0:0:0:0:0:1 - - [29/Dec/2014:18:34:38 +0200] "GET /ProiectJSF/faces/FormProduse.xhtml HTTP/1.1" 500 4048
0:0:0:0:0:0:0:1 - - [29/Dec/2014:18:36:18 +0200] "GET /ProiectJSF/faces/FormProduse.xhtml HTTP/1.1" 200 4088
0:0:0:0:0:0:0:1 - - [29/Dec/2014:18:36:21 +0200] "POST /ProiectJSF/faces/FormProduse.xhtml HTTP/1.1" 500 6691
0:0:0:0:0:0:0:1 - - [29/Dec/2014:18:39:23 +0200] "GET /ProiectJSF/faces/FormProduse.xhtml HTTP/1.1" 200 4375
0:0:0:0:0:0:0:1 - - [29/Dec/2014:18:39:26 +0200] "POST /ProiectJSF/faces/FormProduse.xhtml HTTP/1.1" 200 4379
0:0:0:0:0:0:0:1 - - [29/Dec/2014:18:39:27 +0200] "POST /ProiectJSF/faces/FormProduse.xhtml HTTP/1.1" 200 4376
0:0:0:0:0:0:0:1 - - [29/Dec/2014:18:39:28 +0200] "POST /ProiectJSF/faces/FormProduse.xhtml HTTP/1.1" 200 4377
0:0:0:0:0:0:0:1 - - [29/Dec/2014:18:39:28 +0200] "POST /ProiectJSF/faces/FormProduse.xhtml HTTP/1.1" 200 4376
0:0:0:0:0:0:0:1 - - [29/Dec/2014:18:39:30 +0200] "POST /ProiectJSF/faces/FormProduse.xhtml HTTP/1.1" 200 4376
0:0:0:0:0:0:0:1 - - [29/Dec/2014:18:39:32 +0200] "POST /ProiectJSF/faces/FormProduse.xhtml HTTP/1.1" 500 1311
0:0:0:0:0:0:0:1 - - [29/Dec/2014:18:49:24 +0200] "GET /ProiectJSF/faces/FormProduse.xhtml HTTP/1.1" 500 1311
0:0:0:0:0:0:0:1 - - [29/Dec/2014:18:49:30 +0200] "POST /ProiectJSF/faces/FormProduse.xhtml HTTP/1.1" 200 980
0:0:0:0:0:0:0:1 - - [29/Dec/2014:18:49:34 +0200] "GET /ProiectJSF/faces/FormProduse.xhtml HTTP/1.1" 500 1311
0:0:0:0:0:0:0:1 - - [29/Dec/2014:18:49:34 +0200] "GET /ProiectJSF/faces/javax.faces.resource/jsf.js?ln=javax.faces HTTP/1.1" 304 -
0:0:0:0:0:0:0:1 - - [29/Dec/2014:18:49:35 +0200] "GET /ProiectJSF/faces/FormProduse.xhtml HTTP/1.1" 500 1311
0:0:0:0:0:0:0:1 - - [29/Dec/2014:18:49:35 +0200] "GET /ProiectJSF/faces/javax.faces.resource/jsf.js?ln=javax.faces HTTP/1.1" 304 -
0:0:0:0:0:0:0:1 - - [29/Dec/2014:18:49:36 +0200] "GET /ProiectJSF/faces/FormProduse.xhtml HTTP/1.1" 500 1311
0:0:0:0:0:0:0:1 - - [29/Dec/2014:18:49:36 +0200] "GET /ProiectJSF/faces/javax.faces.resource/jsf.js?ln=javax.faces HTTP/1.1" 304 -
0:0:0:0:0:0:0:1 - - [29/Dec/2014:18:49:37 +0200] "GET /ProiectJSF/faces/FormProduse.xhtml HTTP/1.1" 500 1311
0:0:0:0:0:0:0:1 - - [29/Dec/2014:18:49:37 +0200] "GET /ProiectJSF/faces/FormProduse.xhtml HTTP/1.1" 500 1311
0:0:0:0:0:0:0:1 - - [29/Dec/2014:18:49:37 +0200] "GET /ProiectJSF/faces/javax.faces.resource/jsf.js?ln=javax.faces HTTP/1.1" 304 -
0:0:0:0:0:0:0:1 - - [29/Dec/2014:18:49:37 +0200] "GET /ProiectJSF/faces/FormProduse.xhtml HTTP/1.1" 500 1311
0:0:0:0:0:0:0:1 - - [29/Dec/2014:18:49:37 +0200] "GET /ProiectJSF/faces/javax.faces.resource/jsf.js?ln=javax.faces HTTP/1.1" 304 -
0:0:0:0:0:0:0:1 - - [29/Dec/2014:18:49:54 +0200] "GET /ProiectJSF/WEB-INF/classes/forms/FormProduse.java HTTP/1.1" 404 949
0:0:0:0:0:0:0:1 - - [29/Dec/2014:18:50:02 +0200] "GET /ProiectJSF/faces/FormProduse.xhtml HTTP/1.1" 500 1311
127.0.0.1 - - [29/Dec/2014:18:52:22 +0200] "GET / HTTP/1.1" 404 951
0:0:0:0:0:0:0:1 - - [29/Dec/2014:18:52:58 +0200] "GET /ProiectJSF/faces/FormProduse.xhtml HTTP/1.1" 200 4375
0:0:0:0:0:0:0:1 - - [29/Dec/2014:18:53:00 +0200] "POST /ProiectJSF/faces/FormProduse.xhtml HTTP/1.1" 200 4379
0:0:0:0:0:0:0:1 - - [29/Dec/2014:18:53:01 +0200] "POST /ProiectJSF/faces/FormProduse.xhtml HTTP/1.1" 200 4376
0:0:0:0:0:0:0:1 - - [29/Dec/2014:18:53:04 +0200] "POST /ProiectJSF/faces/FormProduse.xhtml HTTP/1.1" 200 4377
0:0:0:0:0:0:0:1 - - [29/Dec/2014:18:53:04 +0200] "POST /ProiectJSF/faces/FormProduse.xhtml HTTP/1.1" 200 4376
0:0:0:0:0:0:0:1 - - [29/Dec/2014:18:53:06 +0200] "POST /ProiectJSF/faces/FormProduse.xhtml HTTP/1.1" 200 4376
0:0:0:0:0:0:0:1 - - [29/Dec/2014:18:53:07 +0200] "POST /ProiectJSF/faces/FormProduse.xhtml HTTP/1.1" 200 4376
0:0:0:0:0:0:0:1 - - [29/Dec/2014:18:53:08 +0200] "POST /ProiectJSF/faces/FormProduse.xhtml HTTP/1.1" 200 4376
0:0:0:0:0:0:0:1 - - [29/Dec/2014:18:53:09 +0200] "POST /ProiectJSF/faces/FormProduse.xhtml HTTP/1.1" 200 4378
0:0:0:0:0:0:0:1 - - [29/Dec/2014:18:53:10 +0200] "POST /ProiectJSF/faces/FormProduse.xhtml HTTP/1.1" 200 4378
0:0:0:0:0:0:0:1 - - [29/Dec/2014:18:53:12 +0200] "POST /ProiectJSF/faces/FormProduse.xhtml HTTP/1.1" 500 19025
127.0.0.1 - - [29/Dec/2014:18:57:49 +0200] "GET / HTTP/1.1" 404 951
0:0:0:0:0:0:0:1 - - [29/Dec/2014:18:57:54 +0200] "GET /ProiectJSF/faces/FormProduse.xhtml HTTP/1.1" 200 4375
0:0:0:0:0:0:0:1 - - [29/Dec/2014:18:57:57 +0200] "POST /ProiectJSF/faces/FormProduse.xhtml HTTP/1.1" 200 4379
0:0:0:0:0:0:0:1 - - [29/Dec/2014:18:57:59 +0200] "POST /ProiectJSF/faces/FormProduse.xhtml HTTP/1.1" 200 4375
0:0:0:0:0:0:0:1 - - [29/Dec/2014:18:57:59 +0200] "POST /ProiectJSF/faces/FormProduse.xhtml HTTP/1.1" 200 4375
0:0:0:0:0:0:0:1 - - [29/Dec/2014:18:58:00 +0200] "POST /ProiectJSF/faces/FormProduse.xhtml HTTP/1.1" 200 4375
0:0:0:0:0:0:0:1 - - [29/Dec/2014:18:58:01 +0200] "POST /ProiectJSF/faces/FormProduse.xhtml HTTP/1.1" 200 4375
0:0:0:0:0:0:0:1 - - [29/Dec/2014:18:58:02 +0200] "POST /ProiectJSF/faces/FormProduse.xhtml HTTP/1.1" 200 4379
0:0:0:0:0:0:0:1 - - [29/Dec/2014:18:58:03 +0200] "POST /ProiectJSF/faces/FormProduse.xhtml HTTP/1.1" 200 4376
0:0:0:0:0:0:0:1 - - [29/Dec/2014:18:58:03 +0200] "POST /ProiectJSF/faces/FormProduse.xhtml HTTP/1.1" 200 4377
0:0:0:0:0:0:0:1 - - [29/Dec/2014:18:58:04 +0200] "POST /ProiectJSF/faces/FormProduse.xhtml HTTP/1.1" 200 4376
0:0:0:0:0:0:0:1 - - [29/Dec/2014:18:58:05 +0200] "POST /ProiectJSF/faces/FormProduse.xhtml HTTP/1.1" 200 4378
0:0:0:0:0:0:0:1 - - [29/Dec/2014:18:58:05 +0200] "POST /ProiectJSF/faces/FormProduse.xhtml HTTP/1.1" 200 4378
0:0:0:0:0:0:0:1 - - [29/Dec/2014:18:58:06 +0200] "POST /ProiectJSF/faces/FormProduse.xhtml HTTP/1.1" 200 4376
0:0:0:0:0:0:0:1 - - [29/Dec/2014:18:58:07 +0200] "POST /ProiectJSF/faces/FormProduse.xhtml HTTP/1.1" 200 4378
0:0:0:0:0:0:0:1 - - [29/Dec/2014:18:58:08 +0200] "POST /ProiectJSF/faces/FormProduse.xhtml HTTP/1.1" 200 4378
0:0:0:0:0:0:0:1 - - [29/Dec/2014:18:58:10 +0200] "POST /ProiectJSF/faces/FormProduse.xhtml HTTP/1.1" 200 4314
0:0:0:0:0:0:0:1 - - [29/Dec/2014:18:58:14 +0200] "POST /ProiectJSF/faces/FormProduse.xhtml HTTP/1.1" 200 4291
0:0:0:0:0:0:0:1 - - [29/Dec/2014:18:58:19 +0200] "POST /ProiectJSF/faces/FormProduse.xhtml HTTP/1.1" 200 4243
0:0:0:0:0:0:0:1 - - [29/Dec/2014:18:58:23 +0200] "POST /ProiectJSF/faces/FormProduse.xhtml HTTP/1.1" 200 4199
0:0:0:0:0:0:0:1 - - [29/Dec/2014:18:58:24 +0200] "POST /ProiectJSF/faces/FormProduse.xhtml HTTP/1.1" 200 4155
0:0:0:0:0:0:0:1 - - [29/Dec/2014:18:58:25 +0200] "POST /ProiectJSF/faces/FormProduse.xhtml HTTP/1.1" 500 1045
0:0:0:0:0:0:0:1 - - [29/Dec/2014:18:58:53 +0200] "GET /ProiectJSF/faces/FormProduse.xhtml HTTP/1.1" 500 1045
127.0.0.1 - - [29/Dec/2014:19:17:13 +0200] "GET / HTTP/1.1" 404 951
0:0:0:0:0:0:0:1 - - [29/Dec/2014:19:17:21 +0200] "GET /ProiectJSF/faces/FormProduse.xhtml HTTP/1.1" 200 4421
0:0:0:0:0:0:0:1 - - [29/Dec/2014:19:17:24 +0200] "POST /ProiectJSF/faces/FormProduse.xhtml;jsessionid=67C9C2CA80961627F2A871E473921691 HTTP/1.1" 200 4376
0:0:0:0:0:0:0:1 - - [29/Dec/2014:19:17:25 +0200] "POST /ProiectJSF/faces/FormProduse.xhtml HTTP/1.1" 200 4374
0:0:0:0:0:0:0:1 - - [29/Dec/2014:19:17:29 +0200] "POST /ProiectJSF/faces/FormProduse.xhtml HTTP/1.1" 500 1311
0:0:0:0:0:0:0:1 - - [29/Dec/2014:19:17:35 +0200] "POST /ProiectJSF/faces/FormProduse.xhtml HTTP/1.1" 500 1331
0:0:0:0:0:0:0:1 - - [29/Dec/2014:19:17:39 +0200] "POST /ProiectJSF/faces/FormProduse.xhtml HTTP/1.1" 500 1331
0:0:0:0:0:0:0:1 - - [29/Dec/2014:19:48:49 +0200] "GET /ProiectJSF/faces/FormProduse.xhtml HTTP/1.1" 200 4420
0:0:0:0:0:0:0:1 - - [29/Dec/2014:19:51:30 +0200] "POST /ProiectJSF/faces/FormProduse.xhtml HTTP/1.1" 200 4420
0:0:0:0:0:0:0:1 - - [29/Dec/2014:19:51:31 +0200] "POST /ProiectJSF/faces/FormProduse.xhtml HTTP/1.1" 200 4420
0:0:0:0:0:0:0:1 - - [29/Dec/2014:19:51:32 +0200] "POST /ProiectJSF/faces/FormProduse.xhtml HTTP/1.1" 200 4420
0:0:0:0:0:0:0:1 - - [29/Dec/2014:19:51:33 +0200] "POST /ProiectJSF/faces/FormProduse.xhtml HTTP/1.1" 200 4419
0:0:0:0:0:0:0:1 - - [29/Dec/2014:19:51:34 +0200] "POST /ProiectJSF/faces/FormProduse.xhtml HTTP/1.1" 200 4420
0:0:0:0:0:0:0:1 - - [29/Dec/2014:19:51:35 +0200] "POST /ProiectJSF/faces/FormProduse.xhtml HTTP/1.1" 200 4422
0:0:0:0:0:0:0:1 - - [29/Dec/2014:19:51:35 +0200] "POST /ProiectJSF/faces/FormProduse.xhtml HTTP/1.1" 200 4424
0:0:0:0:0:0:0:1 - - [29/Dec/2014:19:51:37 +0200] "POST /ProiectJSF/faces/FormProduse.xhtml HTTP/1.1" 200 4424
0:0:0:0:0:0:0:1 - - [29/Dec/2014:19:51:38 +0200] "POST /ProiectJSF/faces/FormProduse.xhtml HTTP/1.1" 200 4424
0:0:0:0:0:0:0:1 - - [29/Dec/2014:19:51:40 +0200] "POST /ProiectJSF/faces/FormProduse.xhtml HTTP/1.1" 200 4375
0:0:0:0:0:0:0:1 - - [29/Dec/2014:19:51:43 +0200] "POST /ProiectJSF/faces/FormProduse.xhtml HTTP/1.1" 200 4374
0:0:0:0:0:0:0:1 - - [29/Dec/2014:19:51:44 +0200] "POST /ProiectJSF/faces/FormProduse.xhtml HTTP/1.1" 200 4375
0:0:0:0:0:0:0:1 - - [29/Dec/2014:19:51:45 +0200] "POST /ProiectJSF/faces/FormProduse.xhtml HTTP/1.1" 200 4377
0:0:0:0:0:0:0:1 - - [29/Dec/2014:19:51:45 +0200] "POST /ProiectJSF/faces/FormProduse.xhtml HTTP/1.1" 200 4376
0:0:0:0:0:0:0:1 - - [29/Dec/2014:19:51:46 +0200] "POST /ProiectJSF/faces/FormProduse.xhtml HTTP/1.1" 200 4376
0:0:0:0:0:0:0:1 - - [29/Dec/2014:19:51:47 +0200] "POST /ProiectJSF/faces/FormProduse.xhtml HTTP/1.1" 200 4376
0:0:0:0:0:0:0:1 - - [29/Dec/2014:19:52:10 +0200] "POST /ProiectJSF/faces/FormProduse.xhtml HTTP/1.1" 500 1311
127.0.0.1 - - [29/Dec/2014:19:58:50 +0200] "GET / HTTP/1.1" 404 951
0:0:0:0:0:0:0:1 - - [29/Dec/2014:19:58:56 +0200] "GET /ProiectJSF/faces/FormProduse.xhtml HTTP/1.1" 200 4375
0:0:0:0:0:0:0:1 - - [29/Dec/2014:19:59:23 +0200] "POST /ProiectJSF/faces/FormProduse.xhtml HTTP/1.1" 200 4374
0:0:0:0:0:0:0:1 - - [29/Dec/2014:19:59:23 +0200] "POST /ProiectJSF/faces/FormProduse.xhtml HTTP/1.1" 200 4375
0:0:0:0:0:0:0:1 - - [29/Dec/2014:19:59:24 +0200] "POST /ProiectJSF/faces/FormProduse.xhtml HTTP/1.1" 200 4377
0:0:0:0:0:0:0:1 - - [29/Dec/2014:19:59:26 +0200] "POST /ProiectJSF/faces/FormProduse.xhtml HTTP/1.1" 200 4332
0:0:0:0:0:0:0:1 - - [29/Dec/2014:19:59:37 +0200] "POST /ProiectJSF/faces/FormProduse.xhtml HTTP/1.1" 500 1268
0:0:0:0:0:0:0:1 - - [29/Dec/2014:20:00:08 +0200] "POST /ProiectJSF/faces/FormProduse.xhtml HTTP/1.1" 500 1288
127.0.0.1 - - [29/Dec/2014:20:08:30 +0200] "GET / HTTP/1.1" 404 951
0:0:0:0:0:0:0:1 - - [29/Dec/2014:20:08:38 +0200] "GET /ProiectJSF/faces/FormProduse.xhtml HTTP/1.1" 200 4332
0:0:0:0:0:0:0:1 - - [29/Dec/2014:20:08:40 +0200] "POST /ProiectJSF/faces/FormProduse.xhtml HTTP/1.1" 200 4331
0:0:0:0:0:0:0:1 - - [29/Dec/2014:20:08:41 +0200] "POST /ProiectJSF/faces/FormProduse.xhtml HTTP/1.1" 200 4332
0:0:0:0:0:0:0:1 - - [29/Dec/2014:20:08:42 +0200] "POST /ProiectJSF/faces/FormProduse.xhtml HTTP/1.1" 200 4333
0:0:0:0:0:0:0:1 - - [29/Dec/2014:20:08:43 +0200] "POST /ProiectJSF/faces/FormProduse.xhtml HTTP/1.1" 200 4333
0:0:0:0:0:0:0:1 - - [29/Dec/2014:20:08:43 +0200] "POST /ProiectJSF/faces/FormProduse.xhtml HTTP/1.1" 200 4333
0:0:0:0:0:0:0:1 - - [29/Dec/2014:20:08:46 +0200] "POST /ProiectJSF/faces/FormProduse.xhtml HTTP/1.1" 200 4333
0:0:0:0:0:0:0:1 - - [29/Dec/2014:20:08:51 +0200] "POST /ProiectJSF/faces/FormProduse.xhtml HTTP/1.1" 200 4287
0:0:0:0:0:0:0:1 - - [29/Dec/2014:20:08:53 +0200] "POST /ProiectJSF/faces/FormProduse.xhtml HTTP/1.1" 200 4317
0:0:0:0:0:0:0:1 - - [29/Dec/2014:20:09:51 +0200] "POST /ProiectJSF/faces/FormProduse.xhtml HTTP/1.1" 200 4311
0:0:0:0:0:0:0:1 - - [29/Dec/2014:20:09:54 +0200] "POST /ProiectJSF/faces/FormProduse.xhtml HTTP/1.1" 200 4311
0:0:0:0:0:0:0:1 - - [29/Dec/2014:20:09:55 +0200] "POST /ProiectJSF/faces/FormProduse.xhtml HTTP/1.1" 200 4311
0:0:0:0:0:0:0:1 - - [29/Dec/2014:20:10:01 +0200] "POST /ProiectJSF/faces/FormProduse.xhtml HTTP/1.1" 200 4311
0:0:0:0:0:0:0:1 - - [29/Dec/2014:20:10:02 +0200] "POST /ProiectJSF/faces/FormProduse.xhtml HTTP/1.1" 200 4311
0:0:0:0:0:0:0:1 - - [29/Dec/2014:20:10:03 +0200] "POST /ProiectJSF/faces/FormProduse.xhtml HTTP/1.1" 200 4311
0:0:0:0:0:0:0:1 - - [29/Dec/2014:20:10:05 +0200] "POST /ProiectJSF/faces/FormProduse.xhtml HTTP/1.1" 200 4322
0:0:0:0:0:0:0:1 - - [29/Dec/2014:20:10:06 +0200] "POST /ProiectJSF/faces/FormProduse.xhtml HTTP/1.1" 200 4321
0:0:0:0:0:0:0:1 - - [29/Dec/2014:20:10:06 +0200] "POST /ProiectJSF/faces/FormProduse.xhtml HTTP/1.1" 200 4320
0:0:0:0:0:0:0:1 - - [29/Dec/2014:20:10:07 +0200] "POST /ProiectJSF/faces/FormProduse.xhtml HTTP/1.1" 200 4321
0:0:0:0:0:0:0:1 - - [29/Dec/2014:20:10:08 +0200] "POST /ProiectJSF/faces/FormProduse.xhtml HTTP/1.1" 200 4321
0:0:0:0:0:0:0:1 - - [29/Dec/2014:20:10:08 +0200] "POST /ProiectJSF/faces/FormProduse.xhtml HTTP/1.1" 200 4321
0:0:0:0:0:0:0:1 - - [29/Dec/2014:20:10:11 +0200] "POST /ProiectJSF/faces/FormProduse.xhtml HTTP/1.1" 200 4320
0:0:0:0:0:0:0:1 - - [29/Dec/2014:20:10:12 +0200] "POST /ProiectJSF/faces/FormProduse.xhtml HTTP/1.1" 200 4321
0:0:0:0:0:0:0:1 - - [29/Dec/2014:20:10:13 +0200] "POST /ProiectJSF/faces/FormProduse.xhtml HTTP/1.1" 200 4322
0:0:0:0:0:0:0:1 - - [29/Dec/2014:20:10:13 +0200] "POST /ProiectJSF/faces/FormProduse.xhtml HTTP/1.1" 200 4311
0:0:0:0:0:0:0:1 - - [29/Dec/2014:20:10:14 +0200] "POST /ProiectJSF/faces/FormProduse.xhtml HTTP/1.1" 200 4311
0:0:0:0:0:0:0:1 - - [29/Dec/2014:20:10:17 +0200] "POST /ProiectJSF/faces/FormProduse.xhtml HTTP/1.1" 200 4371
0:0:0:0:0:0:0:1 - - [29/Dec/2014:20:10:35 +0200] "POST /ProiectJSF/faces/FormProduse.xhtml HTTP/1.1" 200 4351
0:0:0:0:0:0:0:1 - - [29/Dec/2014:20:10:37 +0200] "POST /ProiectJSF/faces/FormProduse.xhtml HTTP/1.1" 200 4351
0:0:0:0:0:0:0:1 - - [29/Dec/2014:20:10:39 +0200] "POST /ProiectJSF/faces/FormProduse.xhtml HTTP/1.1" 200 4362
0:0:0:0:0:0:0:1 - - [29/Dec/2014:20:10:40 +0200] "POST /ProiectJSF/faces/FormProduse.xhtml HTTP/1.1" 200 4361
0:0:0:0:0:0:0:1 - - [29/Dec/2014:20:10:41 +0200] "POST /ProiectJSF/faces/FormProduse.xhtml HTTP/1.1" 200 4360
0:0:0:0:0:0:0:1 - - [29/Dec/2014:20:10:41 +0200] "POST /ProiectJSF/faces/FormProduse.xhtml HTTP/1.1" 200 4361
0:0:0:0:0:0:0:1 - - [29/Dec/2014:20:10:43 +0200] "POST /ProiectJSF/faces/FormProduse.xhtml HTTP/1.1" 200 4360
0:0:0:0:0:0:0:1 - - [29/Dec/2014:20:10:43 +0200] "POST /ProiectJSF/faces/FormProduse.xhtml HTTP/1.1" 200 4361
0:0:0:0:0:0:0:1 - - [29/Dec/2014:20:10:44 +0200] "POST /ProiectJSF/faces/FormProduse.xhtml HTTP/1.1" 200 4362
0:0:0:0:0:0:0:1 - - [29/Dec/2014:20:10:45 +0200] "POST /ProiectJSF/faces/FormProduse.xhtml HTTP/1.1" 200 4351
0:0:0:0:0:0:0:1 - - [29/Dec/2014:20:10:46 +0200] "POST /ProiectJSF/faces/FormProduse.xhtml HTTP/1.1" 200 4351
0:0:0:0:0:0:0:1 - - [29/Dec/2014:20:10:48 +0200] "POST /ProiectJSF/faces/FormProduse.xhtml HTTP/1.1" 200 4354
0:0:0:0:0:0:0:1 - - [29/Dec/2014:20:10:50 +0200] "POST /ProiectJSF/faces/FormProduse.xhtml HTTP/1.1" 200 4321
0:0:0:0:0:0:0:1 - - [29/Dec/2014:20:10:52 +0200] "POST /ProiectJSF/faces/FormProduse.xhtml HTTP/1.1" 200 4320
0:0:0:0:0:0:0:1 - - [29/Dec/2014:20:10:53 +0200] "POST /ProiectJSF/faces/FormProduse.xhtml HTTP/1.1" 200 4321
0:0:0:0:0:0:0:1 - - [29/Dec/2014:20:10:53 +0200] "POST /ProiectJSF/faces/FormProduse.xhtml HTTP/1.1" 200 4322
0:0:0:0:0:0:0:1 - - [29/Dec/2014:20:10:54 +0200] "POST /ProiectJSF/faces/FormProduse.xhtml HTTP/1.1" 200 4311
0:0:0:0:0:0:0:1 - - [29/Dec/2014:20:10:54 +0200] "POST /ProiectJSF/faces/FormProduse.xhtml HTTP/1.1" 200 4311
0:0:0:0:0:0:0:1 - - [29/Dec/2014:20:10:55 +0200] "POST /ProiectJSF/faces/FormProduse.xhtml HTTP/1.1" 200 4311
0:0:0:0:0:0:0:1 - - [29/Dec/2014:20:10:56 +0200] "POST /ProiectJSF/faces/FormProduse.xhtml HTTP/1.1" 200 4322
0:0:0:0:0:0:0:1 - - [29/Dec/2014:20:10:57 +0200] "POST /ProiectJSF/faces/FormProduse.xhtml HTTP/1.1" 200 4321
0:0:0:0:0:0:0:1 - - [29/Dec/2014:20:10:58 +0200] "POST /ProiectJSF/faces/FormProduse.xhtml HTTP/1.1" 200 4320
0:0:0:0:0:0:0:1 - - [29/Dec/2014:20:10:58 +0200] "POST /ProiectJSF/faces/FormProduse.xhtml HTTP/1.1" 200 4321
0:0:0:0:0:0:0:1 - - [29/Dec/2014:20:10:59 +0200] "POST /ProiectJSF/faces/FormProduse.xhtml HTTP/1.1" 200 4321
0:0:0:0:0:0:0:1 - - [29/Dec/2014:20:11:00 +0200] "POST /ProiectJSF/faces/FormProduse.xhtml HTTP/1.1" 200 4321
0:0:0:0:0:0:0:1 - - [29/Dec/2014:20:11:01 +0200] "POST /ProiectJSF/faces/FormProduse.xhtml HTTP/1.1" 200 4320
0:0:0:0:0:0:0:1 - - [29/Dec/2014:20:11:02 +0200] "POST /ProiectJSF/faces/FormProduse.xhtml HTTP/1.1" 200 4321
0:0:0:0:0:0:0:1 - - [29/Dec/2014:20:11:02 +0200] "POST /ProiectJSF/faces/FormProduse.xhtml HTTP/1.1" 200 4322
0:0:0:0:0:0:0:1 - - [29/Dec/2014:20:11:03 +0200] "POST /ProiectJSF/faces/FormProduse.xhtml HTTP/1.1" 200 4311
0:0:0:0:0:0:0:1 - - [29/Dec/2014:20:11:03 +0200] "POST /ProiectJSF/faces/FormProduse.xhtml HTTP/1.1" 200 4311
0:0:0:0:0:0:0:1 - - [29/Dec/2014:20:11:05 +0200] "POST /ProiectJSF/faces/FormProduse.xhtml HTTP/1.1" 200 4351
0:0:0:0:0:0:0:1 - - [29/Dec/2014:20:11:18 +0200] "POST /ProiectJSF/faces/FormProduse.xhtml HTTP/1.1" 200 4345
0:0:0:0:0:0:0:1 - - [29/Dec/2014:20:11:31 +0200] "POST /ProiectJSF/faces/FormProduse.xhtml HTTP/1.1" 200 4345
0:0:0:0:0:0:0:1 - - [29/Dec/2014:20:11:50 +0200] "POST /ProiectJSF/faces/FormProduse.xhtml HTTP/1.1" 200 4345
0:0:0:0:0:0:0:1 - - [29/Dec/2014:20:12:05 +0200] "POST /ProiectJSF/faces/FormProduse.xhtml HTTP/1.1" 200 4345
0:0:0:0:0:0:0:1 - - [29/Dec/2014:20:12:08 +0200] "POST /ProiectJSF/faces/FormProduse.xhtml HTTP/1.1" 200 4345
0:0:0:0:0:0:0:1 - - [29/Dec/2014:20:12:09 +0200] "POST /ProiectJSF/faces/FormProduse.xhtml HTTP/1.1" 200 4345
0:0:0:0:0:0:0:1 - - [29/Dec/2014:20:12:10 +0200] "POST /ProiectJSF/faces/FormProduse.xhtml HTTP/1.1" 200 4356
0:0:0:0:0:0:0:1 - - [29/Dec/2014:20:12:10 +0200] "POST /ProiectJSF/faces/FormProduse.xhtml HTTP/1.1" 200 4355
0:0:0:0:0:0:0:1 - - [29/Dec/2014:20:12:11 +0200] "POST /ProiectJSF/faces/FormProduse.xhtml HTTP/1.1" 200 4354
0:0:0:0:0:0:0:1 - - [29/Dec/2014:20:12:12 +0200] "POST /ProiectJSF/faces/FormProduse.xhtml HTTP/1.1" 200 4355
0:0:0:0:0:0:0:1 - - [29/Dec/2014:20:12:12 +0200] "POST /ProiectJSF/faces/FormProduse.xhtml HTTP/1.1" 200 4355
0:0:0:0:0:0:0:1 - - [29/Dec/2014:20:12:14 +0200] "POST /ProiectJSF/faces/FormProduse.xhtml HTTP/1.1" 200 4354
0:0:0:0:0:0:0:1 - - [29/Dec/2014:20:12:14 +0200] "POST /ProiectJSF/faces/FormProduse.xhtml HTTP/1.1" 200 4355
0:0:0:0:0:0:0:1 - - [29/Dec/2014:20:12:15 +0200] "POST /ProiectJSF/faces/FormProduse.xhtml HTTP/1.1" 200 4356
0:0:0:0:0:0:0:1 - - [29/Dec/2014:20:12:15 +0200] "POST /ProiectJSF/faces/FormProduse.xhtml HTTP/1.1" 200 4345
0:0:0:0:0:0:0:1 - - [29/Dec/2014:20:12:16 +0200] "POST /ProiectJSF/faces/FormProduse.xhtml HTTP/1.1" 200 4345
0:0:0:0:0:0:0:1 - - [29/Dec/2014:20:12:17 +0200] "POST /ProiectJSF/faces/FormProduse.xhtml HTTP/1.1" 200 4345
0:0:0:0:0:0:0:1 - - [29/Dec/2014:20:12:17 +0200] "POST /ProiectJSF/faces/FormProduse.xhtml HTTP/1.1" 200 4345
